+8.61255384e-07
+8.36571546e-07
+7.81679231e-07
+8.00882120e-07
+7.29358172e-07
+8.29269728e-07
+8.56420695e-07
+8.48281813e-07
+8.37071505e-07
+7.87458678e-07
+8.98549873e-07
+8.15806742e-07
+9.53841007e-07
+8.04959079e-07
+8.43594273e-07
+8.53835259e-07
+8.63346604e-07
+9.60736025e-07
+8.65910382e-07
+8.38304964e-07
+7.90449243e-07
+7.75019339e-07
+8.31042622e-07
+7.73452030e-07
+8.75682480e-07
+8.61851242e-07
+8.07370165e-07
+8.06658603e-07
+8.41203203e-07
+9.13820474e-07
+8.49309946e-07
+7.73730880e-07
+8.87730899e-07
+7.45500906e-07
+8.14901558e-07
+9.18999988e-07
+8.04487175e-07
+8.88480669e-07
+9.04485885e-07
+7.53806472e-07
+7.92562398e-07
+8.46616610e-07
+7.82031151e-07
+8.52239699e-07
+7.68963782e-07
+8.46881075e-07
+8.26406893e-07
+7.96554212e-07
+8.42321632e-07
+8.66798033e-07
+7.97516081e-07
+8.73898702e-07
+8.16684395e-07
+8.72132120e-07
+7.91820448e-07
+8.86072348e-07
+8.16280593e-07
+7.21771316e-07
+7.54248084e-07
+8.61174147e-07
+8.21865210e-07
+8.98168091e-07
+8.69214689e-07
+7.94590548e-07
+7.84094234e-07
+8.13417894e-07
+8.90313440e-07
+8.29470307e-07
+9.64503681e-07
+7.90253767e-07
+8.10892727e-07
+8.13087566e-07
+8.44194587e-07
+8.20654554e-07
+9.01136994e-07
+7.57498954e-07
+7.90516453e-07
+8.01503307e-07
+7.26082223e-07
+9.00738541e-07
+9.02784657e-07
+8.96665680e-07
+7.78565723e-07
+8.29474555e-07
+8.80540606e-07
+8.68310509e-07
+8.59972600e-07
+8.47512560e-07
+9.08651610e-07
+8.37771620e-07
+9.60993870e-07
+7.87847268e-07
+8.87290184e-07
+8.57271898e-07
+7.69140999e-07
+8.87299709e-07
+7.89938965e-07
+8.50465901e-07
+8.09993322e-07
+8.51831277e-07
+8.37238360e-07
+8.22388480e-07
+8.09178943e-07
+8.59471685e-07
+8.15521335e-07
+9.20010879e-07
+8.86739934e-07
+8.32037298e-07
+8.28320172e-07
+8.86551627e-07
+8.74340204e-07
+8.49198293e-07
+8.18722963e-07
+7.87948512e-07
+8.46907334e-07
+8.67482825e-07
+7.51465289e-07
+8.41294972e-07
+7.92012907e-07
+8.29122418e-07
+9.05477845e-07
+7.82556189e-07
+8.31795472e-07
+7.92489404e-07
+7.49386542e-07
+8.45873174e-07
+8.66841611e-07
+8.65944631e-07
+7.99527554e-07
+7.88926992e-07
+7.03603522e-07
+8.48674248e-07
+8.52772848e-07
+8.06997022e-07
+7.96053072e-07
+8.60527613e-07
+8.66748156e-07
+8.17255391e-07
+7.97665401e-07
+9.13033054e-07
+8.83449264e-07
+7.93146680e-07
+8.27734272e-07
+8.54469943e-07
+8.06465238e-07
+9.44766586e-07
+8.06871558e-07
+8.09739750e-07
+8.18704630e-07
+8.61520187e-07
+8.36605398e-07
+7.75050797e-07
+7.64780072e-07
+8.58166827e-07
+7.66108829e-07
+9.15747570e-07
+8.32621519e-07
+7.75500535e-07
+7.50490160e-07
+9.12665042e-07
+7.75323799e-07
+8.39244328e-07
+8.30544365e-07
+8.66619604e-07
+8.41454554e-07
+8.34257837e-07
+8.68247366e-07
+8.02577251e-07
+8.45408307e-07
+8.73688658e-07
+8.27916052e-07
+8.02467329e-07
+8.63339171e-07
+7.63281663e-07
+7.96858847e-07
+8.45171893e-07
+8.25794448e-07
+7.71854836e-07
+7.57115784e-07
+8.60188683e-07
+8.33563163e-07
+8.24711836e-07
+7.65792573e-07
+8.63191720e-07
+7.99693088e-07
+8.35072744e-07
+7.86883022e-07
+8.45060411e-07
+8.48042307e-07
+7.75593962e-07
+9.27084611e-07
+8.15349532e-07
+8.18533054e-07
+7.88428621e-07
+9.14404841e-07
+8.93833974e-07
+7.77463084e-07
+7.83570588e-07
+8.71580144e-07
+8.07157452e-07
+7.69626791e-07
+9.32043469e-07
+8.31622567e-07
+7.96570690e-07
+8.45068494e-07
+8.02364433e-07
+8.65817574e-07
+8.43114431e-07
+8.04123846e-07
+8.92062772e-07
+8.41309013e-07
+8.31454995e-07
+8.50093896e-07
+8.27337265e-07
+7.79699765e-07
+8.61044468e-07
+7.87962822e-07
+7.85580368e-07
+8.22024542e-07
+8.58864190e-07
+8.15516414e-07
+7.75863096e-07
+8.99506985e-07
+9.09130533e-07
+8.06082273e-07
+8.90764754e-07
+8.74935949e-07
+8.00995562e-07
+8.25360782e-07
+8.61193414e-07
+7.69340574e-07
+8.99768380e-07
+7.76176369e-07
+8.14057796e-07
+9.22859397e-07
+7.79227896e-07
+7.42467030e-07
+8.63141884e-07
+8.29750849e-07
+7.94710281e-07
+7.90547864e-07
+8.48605211e-07
+7.40836412e-07
+9.02209270e-07
+8.68748555e-07
+8.61239588e-07
+8.56535464e-07
+8.91388709e-07
+8.48144437e-07
+8.46726501e-07
+8.64042739e-07
+8.44840601e-07
+8.67792652e-07
+8.03789969e-07
+8.65932953e-07
+8.39157885e-07
+7.74545944e-07
+9.15341756e-07
+8.40498645e-07
+8.31688051e-07
+7.85839266e-07
+8.10327178e-07
+8.84269607e-07
+8.47215766e-07
+8.36443222e-07
+8.85481105e-07
+7.49924775e-07
+7.88404301e-07
+7.61647900e-07
+8.10048253e-07
+7.93234561e-07
+9.43923913e-07
+8.36011910e-07
+8.14394756e-07
+8.73368490e-07
+8.07971010e-07
+9.27031937e-07
+7.76605754e-07
+8.38415892e-07
+8.30830892e-07
+8.44649415e-07
+7.77479196e-07
+9.43890363e-07
+9.04427627e-07
+8.55889121e-07
+8.06186613e-07
+8.04219792e-07
+8.27989391e-07
+8.57659157e-07
+8.51315410e-07
+8.11638321e-07
+9.20392025e-07
+7.63881107e-07
+7.27815933e-07
+8.08616505e-07
+8.52481078e-07
+8.56748298e-07
+8.83552356e-07
+8.43536245e-07
+9.13752548e-07
+8.38570570e-07
+7.67261082e-07
+8.91209747e-07
+8.85052332e-07
+7.54160303e-07
+8.90049381e-07
+7.21374597e-07
+8.95087336e-07
+9.29576151e-07
+8.12685191e-07
+8.40540917e-07
+7.45708047e-07
+8.14147790e-07
+8.18279048e-07
+8.73451794e-07
+8.84830918e-07
+8.52602473e-07
+8.64459452e-07
+8.33690239e-07
+7.87553276e-07
+8.26319765e-07
+8.71621351e-07
+8.59905764e-07
+8.65335352e-07
+8.05814545e-07
+8.87549630e-07
+7.99137550e-07
+8.90346201e-07
+8.03997802e-07
+8.66667597e-07
+8.32594688e-07
+8.19189988e-07
+8.10850231e-07
+7.55846521e-07
+8.80085192e-07
+8.49145328e-07
+8.98983416e-07
+9.52068745e-07
+8.09112742e-07
+8.74500000e-07
+8.48812207e-07
+7.98138115e-07
+8.07866437e-07
+8.90076007e-07
+7.96182983e-07
+8.38370162e-07
+7.90293183e-07
+8.25758328e-07
+7.74537177e-07
+7.91500116e-07
+8.23243555e-07
+8.93234166e-07
+8.79362176e-07
+7.87124267e-07
+7.95911259e-07
+6.54792940e-07
+8.27400798e-07
+7.93097624e-07
+8.08014319e-07
+8.49816614e-07
+8.38199403e-07
+8.80321559e-07
+7.76574270e-07
+9.17129982e-07
+8.02828738e-07
+7.82294544e-07
+8.71434152e-07
+7.57893338e-07
+8.82714815e-07
+7.77443847e-07
+8.21574331e-07
+7.89374092e-07
+8.29420197e-07
+7.94649643e-07
+7.50591409e-07
+8.61636522e-07
+8.53070627e-07
+7.53783882e-07
+7.67087535e-07
+8.62844748e-07
+9.01161093e-07
+9.50908303e-07
+8.29255262e-07
+8.98228367e-07
+8.82036333e-07
+7.86493914e-07
+9.01029786e-07
+8.32687542e-07
+8.11127005e-07
+9.60910261e-07
+8.46270035e-07
+7.58542092e-07
+8.74608978e-07
+7.82804031e-07
+8.50462820e-07
+9.17297614e-07
+8.58980357e-07
+8.90160205e-07
+8.64274508e-07
+7.94016101e-07
+8.11622610e-07
+8.35068228e-07
+7.81038836e-07
+8.42349209e-07
+8.24863383e-07
+8.50337840e-07
+7.50523650e-07
+9.13577514e-07
+8.43308986e-07
+8.33136103e-07
+8.97658576e-07
+8.49781557e-07
+8.40383133e-07
+8.76484397e-07
+7.81174895e-07
+9.83632239e-07
+8.58029566e-07
+7.97205103e-07
+7.78687660e-07
+7.56511311e-07
+8.41328419e-07
+8.41450533e-07
+8.01874350e-07
+7.85972597e-07
+8.41909782e-07
+8.88456786e-07
+9.43258685e-07
+8.41208351e-07
+8.37793547e-07
+9.22718395e-07
+8.00154024e-07
+8.39129349e-07
+9.14472202e-07
+9.46863692e-07
+7.32738891e-07
+7.61109905e-07
+8.21296332e-07
+8.71383514e-07
+8.15287288e-07
+9.26818309e-07
+8.14365786e-07
+8.01868551e-07
+7.60503399e-07
+8.38191051e-07
+9.07185904e-07
+8.81107075e-07
+8.78317262e-07
+8.24207225e-07
+8.77634737e-07
+7.66090737e-07
+7.61526485e-07
+8.70329945e-07
+8.26941171e-07
+8.73672246e-07
+7.41551204e-07
+7.51664673e-07
+7.70135395e-07
+9.03111263e-07
+8.59727126e-07
+7.90611008e-07
+8.66831219e-07
+8.50314470e-07
+7.51317553e-07
+8.05800507e-07
+8.61666283e-07
+8.80113236e-07
+7.53326047e-07
+7.76362713e-07
+7.96130364e-07
+8.61838712e-07
+8.01599306e-07
+8.28717596e-07
+9.30878852e-07
+9.10948610e-07
+8.34965446e-07
+8.42318973e-07
+8.21421624e-07
+7.83229405e-07
+8.42875745e-07
+8.15160663e-07
+8.34350698e-07
+8.39560166e-07
+7.73660794e-07
+8.06124929e-07
+8.66093548e-07
+8.10807677e-07
+7.67814403e-07
+8.40751299e-07
+7.51120907e-07
+8.32708446e-07
+7.65124566e-07
+8.91728736e-07
+8.95697604e-07
+9.64600163e-07
+7.71200602e-07
+8.50613711e-07
+8.71986364e-07
+8.18150330e-07
+8.06325099e-07
+8.55738827e-07
+9.02898655e-07
+8.96811433e-07
+9.02373926e-07
+8.40032618e-07
+9.06357264e-07
+8.77755880e-07
+8.92055784e-07
+8.75152357e-07
+7.57199381e-07
+8.56580655e-07
+8.24991999e-07
+8.81326313e-07
+7.37197049e-07
+8.93929200e-07
+8.38348559e-07
+8.93490255e-07
+8.40536690e-07
+9.31688202e-07
+8.11631170e-07
+8.48161947e-07
+7.72754900e-07
+7.87289162e-07
+8.51839437e-07
+8.87259167e-07
+7.14725738e-07
+8.85315413e-07
+8.41563646e-07
+7.81871558e-07
+8.14222792e-07
+8.97012417e-07
+8.06471415e-07
+7.66534076e-07
+8.36257570e-07
+8.55379829e-07
+8.12036330e-07
+7.89240395e-07
+7.61299085e-07
+8.82978876e-07
+8.71067946e-07
+7.67299950e-07
+8.05056414e-07
+8.49847175e-07
+8.85852315e-07
+8.27670766e-07
+7.35042496e-07
+8.11586820e-07
+9.57514642e-07
+8.44912868e-07
+7.79050189e-07
+9.45820401e-07
+8.68747193e-07
+8.36544236e-07
+7.91875471e-07
+8.11857875e-07
+8.53172572e-07
+8.66498162e-07
+7.87706109e-07
+8.23370391e-07
+8.52687982e-07
+8.27126783e-07
+7.70401249e-07
+7.96170297e-07
+7.36351959e-07
+9.05388976e-07
+8.09834273e-07
+7.95357329e-07
+8.83356972e-07
+8.37081987e-07
+8.32718161e-07
+8.16571012e-07
+8.23931707e-07
+8.05578781e-07
+8.13964482e-07
+8.88629130e-07
+8.41258893e-07
+8.36643411e-07
+8.58141433e-07
+8.05620423e-07
+8.61338031e-07
+8.96654690e-07
+8.52336206e-07
+8.19886409e-07
+9.52517985e-07
+8.20172002e-07
+9.52934340e-07
+7.81937878e-07
+8.05265688e-07
+8.36627999e-07
+9.46169553e-07
+8.85836313e-07
+9.80554039e-07
+7.98811480e-07
+8.86399548e-07
+8.18347659e-07
+7.76134854e-07
+8.75613276e-07
+8.39936308e-07
+8.42877671e-07
+8.38683211e-07
+7.34262390e-07
+8.13035093e-07
+7.93191713e-07
+8.86241437e-07
+8.73734389e-07
+8.59850719e-07
+8.18352418e-07
+8.14755662e-07
+8.76448033e-07
+8.59058300e-07
+8.01158615e-07
+8.98788199e-07
+8.25859254e-07
+8.81758010e-07
+7.93148554e-07
+8.19263983e-07
+7.89622934e-07
+8.64371964e-07
+7.76029357e-07
+8.83620598e-07
+8.97453401e-07
+7.99679895e-07
+8.18696956e-07
+8.23734860e-07
+8.31018922e-07
+7.79944629e-07
+7.80313083e-07
+8.52849738e-07
+7.96110139e-07
+7.89538494e-07
+7.89381460e-07
+8.41930265e-07
+8.12933682e-07
+7.48014904e-07
+8.41213820e-07
+9.11824781e-07
+8.79609901e-07
+8.42701909e-07
+7.55149870e-07
+8.42782722e-07
+8.75737385e-07
+9.30278107e-07
+8.84165231e-07
+9.42720936e-07
+7.83955652e-07
+8.73400308e-07
+7.94471983e-07
+8.29081807e-07
+8.78713998e-07
+8.80409552e-07
+8.34370960e-07
+8.65087801e-07
+8.36905163e-07
+8.02022100e-07
+8.07458554e-07
+8.07792967e-07
+9.61264659e-07
+8.41118955e-07
+7.95124531e-07
+9.29293412e-07
+8.26915500e-07
+7.37563925e-07
+8.72598863e-07
+8.42603531e-07
+8.44545583e-07
+8.51837702e-07
+7.83874313e-07
+8.58474152e-07
+8.14845480e-07
+8.11107748e-07
+8.46266303e-07
+7.63895205e-07
+9.40974150e-07
+8.41869438e-07
+7.97776466e-07
+7.78064408e-07
+8.22129078e-07
+7.61010316e-07
+8.09075346e-07
+9.04292194e-07
+8.72540634e-07
+8.82433395e-07
+8.10491118e-07
+8.29207143e-07
+8.48286746e-07
+8.67439341e-07
+8.42003883e-07
+8.95299406e-07
+7.61450283e-07
+7.47372788e-07
+7.72445097e-07
+9.01816711e-07
+9.09189878e-07
+7.66340665e-07
+8.57811723e-07
+8.78912696e-07
+9.01147982e-07
+7.78492512e-07
+8.56527436e-07
+7.74552229e-07
+9.03555660e-07
+9.03957310e-07
+8.24349086e-07
+8.57189488e-07
+7.75981345e-07
+7.88290241e-07
+8.00431172e-07
+8.58510267e-07
+8.88401253e-07
+8.53593288e-07
+8.48083019e-07
+7.25276872e-07
+6.90429498e-07
+6.98942469e-07
+8.96830296e-07
+8.08919890e-07
+8.53351344e-07
+7.76499893e-07
+8.08289620e-07
+9.16332741e-07
+8.01089139e-07
+8.47762584e-07
+8.80694308e-07
+8.69471844e-07
+8.48717089e-07
+8.05626612e-07
+8.23010564e-07
+7.97564355e-07
+8.88250779e-07
+8.83599779e-07
+8.84320171e-07
+7.73827887e-07
+8.06976630e-07
+8.93521761e-07
+7.71296869e-07
+8.35121394e-07
+7.48134697e-07
+8.26037093e-07
+8.85122963e-07
+8.45454333e-07
+8.41400605e-07
+9.05591310e-07
+7.03212888e-07
+8.48765356e-07
+7.49692313e-07
+8.17633727e-07
+9.10734109e-07
+7.97146781e-07
+7.78258079e-07
+7.85681468e-07
+8.93157627e-07
+8.44982621e-07
+8.74763490e-07
+7.51888265e-07
+8.23376931e-07
+7.22618455e-07
+7.90628504e-07
+8.68932496e-07
+8.69105583e-07
+7.88050739e-07
+9.15357818e-07
+7.76542073e-07
+7.80306133e-07
+8.32269309e-07
+8.00782267e-07
+9.13715177e-07
+8.29489846e-07
+8.35849817e-07
+8.15187112e-07
+7.30577326e-07
+9.05301092e-07
+8.00679459e-07
+8.70435564e-07
+8.21315771e-07
+8.68641234e-07
+8.13639267e-07
+8.62604218e-07
+8.32890432e-07
+8.04641969e-07
+8.64710305e-07
+7.94201298e-07
+8.22020679e-07
+8.21489625e-07
+9.11138090e-07
+8.13392958e-07
+8.91982523e-07
+9.00145383e-07
+7.67434459e-07
+7.39096839e-07
+7.80077335e-07
+7.92568049e-07
+7.21885114e-07
+7.35463585e-07
+8.18026181e-07
+8.50101869e-07
+8.86993625e-07
+8.54986010e-07
+7.89313081e-07
+8.16864851e-07
+8.45496608e-07
+7.53228589e-07
+8.33158914e-07
+8.55892478e-07
+7.89825011e-07
+8.23080993e-07
+8.83233682e-07
+8.55967672e-07
+8.47049929e-07
+8.01627552e-07
+7.70211583e-07
+8.29257509e-07
+9.19827398e-07
+8.26338887e-07
+9.46070273e-07
+8.36450762e-07
+8.22143514e-07
+8.70619828e-07
+8.82002213e-07
+8.38911577e-07
+8.70616376e-07
+7.82876386e-07
+8.40788694e-07
+8.32677625e-07
+7.94918704e-07
+9.03685308e-07
+7.68309916e-07
+8.48133437e-07
+7.98937029e-07
+7.46878769e-07
+8.64773653e-07
+8.26013587e-07
+8.32614859e-07
+7.88761892e-07
+8.04597545e-07
+8.22231113e-07
+8.05863189e-07
+8.44281213e-07
+9.03255025e-07
+7.69910540e-07
+8.43333372e-07
+8.34652637e-07
+8.14851036e-07
+7.40848729e-07
+7.71648432e-07
+7.95035138e-07
+8.87147490e-07
+8.12708511e-07
+7.53724230e-07
+8.14645683e-07
+9.16347274e-07
+8.79643760e-07
+9.18445051e-07
+8.48959997e-07
+7.71903845e-07
+8.56244698e-07
+8.13060646e-07
+8.90617106e-07
+8.67806075e-07
+7.61013233e-07
+8.57415426e-07
+7.80879953e-07
+8.13032074e-07
+8.36737127e-07
+7.91020475e-07
+8.60932829e-07
+8.81353416e-07
+8.02371828e-07
+7.93290933e-07
+8.38566131e-07
+8.10786367e-07
+7.51457972e-07
+8.31580198e-07
+8.02979924e-07
+8.79346311e-07
+9.67617942e-07
+8.63168583e-07
+8.70421762e-07
+7.78340609e-07
+9.13858926e-07
+9.14918656e-07
+8.81389333e-07
+7.98849525e-07
+7.85996857e-07
+7.78481467e-07
+8.95054029e-07
+8.38733861e-07
+8.11166454e-07
+8.46206517e-07
+8.24565524e-07
+9.04782092e-07
+8.52096038e-07
+7.73144580e-07
+8.21637173e-07
+9.15752049e-07
+9.26834415e-07
+8.18151499e-07
+8.72837209e-07
+8.82539659e-07
+7.91769693e-07
+8.13285016e-07
+7.89243473e-07
+7.70833022e-07
+8.75609142e-07
+8.47072879e-07
+8.09627041e-07
+8.91475798e-07
+7.42561369e-07
+7.96716709e-07
+7.51686807e-07
+8.29289118e-07
+7.98532150e-07
+8.60031914e-07
+8.09726887e-07
+9.07189638e-07
+8.06891442e-07
+7.74402238e-07
+8.76933736e-07
+8.00578528e-07
+7.54174515e-07
+8.39507361e-07
+8.27520957e-07
+8.94996367e-07
+7.35263403e-07
+7.97330646e-07
+7.52601622e-07
+8.22384891e-07
+9.10106720e-07
+9.25396615e-07
+8.61838591e-07
+9.15812026e-07
+8.30597074e-07
+8.43644513e-07
+7.36527106e-07
+8.88752050e-07
+7.87299715e-07
+7.78582239e-07
+8.61794435e-07
+8.03928774e-07
+8.81931363e-07
+8.35718649e-07
+8.48351130e-07
+8.58973979e-07
+7.75774828e-07
+8.78905881e-07
+7.98598286e-07
+8.47298531e-07
+9.32610093e-07
+6.84953615e-07
+7.96918163e-07
+8.02802474e-07
+8.87728400e-07
+8.47380644e-07
+7.98562573e-07
+7.56064411e-07
+8.07583512e-07
+7.99523698e-07
+8.29263429e-07
+8.54649695e-07
+8.45873652e-07
+7.57939364e-07
+7.53109558e-07
+9.48797368e-07
+8.48126819e-07
+7.87055654e-07
+7.90287115e-07
+8.30839849e-07
+8.63170060e-07
+9.20869427e-07
+8.41590989e-07
+9.15766000e-07
+8.46589165e-07
+8.03757253e-07
+8.53051546e-07
+7.69981965e-07
+8.64839743e-07
+7.94575229e-07
+8.02853026e-07
+7.64507929e-07
+7.93915700e-07
+7.68203040e-07
+8.64948700e-07
+7.38449498e-07
+7.82251186e-07
+8.65232413e-07
+9.12840563e-07
+7.93938804e-07
+7.69705391e-07
+8.18764552e-07
+8.00066549e-07
+9.61605889e-07
+8.54975345e-07
+8.25289812e-07
+8.40921873e-07
+8.27282792e-07
+8.75407397e-07
+8.39847174e-07
+8.50055919e-07
+8.66219568e-07
+8.77319464e-07
+8.10060510e-07
+8.26056206e-07
